<?xml version="1.0" encoding="UTF-8" standalone="no"?>
<!DOCTYPE svg PUBLIC "-//W3C//DTD SVG 1.1//EN"
 "http://www.w3.org/Graphics/SVG/1.1/DTD/svg11.dtd">
<!-- Generated by graphviz version 7.1.0 (20230121.1956)
 -->
<!-- Title: follower Pages: 1 -->
<svg width="313pt" height="291pt"
 viewBox="0.00 0.00 312.54 291.11" xmlns="http://www.w3.org/2000/svg" xmlns:xlink="http://www.w3.org/1999/xlink">
<g id="graph0" class="graph" transform="scale(1 1) rotate(0) translate(4 287.11)">
<title>follower</title>
<polygon fill="#ffffff" stroke="none" points="-4,4 -4,-287.11 308.54,-287.11 308.54,4 -4,4"/>
<!-- N1 -->
<g id="node1" class="node node">
<title>N1</title>
<ellipse fill="#ffaa00" stroke="#000000" cx="65.55" cy="-266.84" rx="52.15" ry="16.03"/>
<text text-anchor="middle" x="65.55" y="-263.14" font-family="Times,serif" font-size="14.00">Pending</text>
</g>
<!-- N6 -->
<g id="node2" class="node node">
<title>N6</title>
<ellipse fill="#ffaa00" stroke="#000000" cx="104.55" cy="-16.26" rx="51.74" ry="16.03"/>
<text text-anchor="middle" x="104.55" y="-12.56" font-family="Times,serif" font-size="14.00">Blocked</text>
</g>
<!-- N1&#45;&gt;N6 -->
<g id="E3" class="edge edge">
<title>N1&#45;&gt;N6</title>
<path fill="none" stroke="#a0a0a4" d="M49.59,-251.38C44.25,-245.9 38.63,-239.34 34.55,-232.58 11,-193.48 -10.17,-176.91 5.55,-134.05 19.84,-95.11 53.5,-60.24 77.6,-38.96"/>
<polygon fill="#a0a0a4" stroke="#a0a0a4" points="79.85,-41.64 85.16,-32.47 75.3,-36.33 79.85,-41.64"/>
<text text-anchor="middle" x="24.55" y="-137.85" font-family="Times,serif" font-size="14.00">block</text>
</g>
<!-- N7 -->
<g id="node3" class="node node">
<title>N7</title>
<ellipse fill="#ffaa00" stroke="#000000" cx="104.55" cy="-99.79" rx="38.37" ry="16.03"/>
<text text-anchor="middle" x="104.55" y="-96.09" font-family="Times,serif" font-size="14.00">None</text>
</g>
<!-- N1&#45;&gt;N7 -->
<g id="E9" class="edge edge">
<title>N1&#45;&gt;N7</title>
<path fill="none" stroke="#a0a0a4" d="M54.81,-250.75C42.21,-231.05 24.47,-195.71 36.55,-167.05 44.51,-148.19 60.76,-132.03 75.37,-120.39"/>
<polygon fill="#a0a0a4" stroke="#a0a0a4" points="77.1,-123.48 82.97,-114.66 72.88,-117.89 77.1,-123.48"/>
<text text-anchor="middle" x="57.55" y="-179.62" font-family="Times,serif" font-size="14.00">reject</text>
</g>
<!-- N5 -->
<g id="node4" class="node node">
<title>N5</title>
<ellipse fill="#ffaa00" stroke="#000000" cx="246.55" cy="-183.32" rx="57.97" ry="16.03"/>
<text text-anchor="middle" x="246.55" y="-179.62" font-family="Times,serif" font-size="14.00">Accepted</text>
</g>
<!-- N1&#45;&gt;N5 -->
<g id="E1" class="edge edge">
<title>N1&#45;&gt;N5</title>
<path fill="none" stroke="#a0a0a4" d="M93.84,-253.11C124.29,-239.39 172.97,-217.46 207.16,-202.06"/>
<polygon fill="#a0a0a4" stroke="#a0a0a4" points="208.21,-205.43 215.89,-198.13 205.34,-199.04 208.21,-205.43"/>
<text text-anchor="middle" x="195.05" y="-221.38" font-family="Times,serif" font-size="14.00">accept</text>
</g>
<!-- N7&#45;&gt;N1 -->
<g id="E6" class="edge edge">
<title>N7&#45;&gt;N1</title>
<path fill="none" stroke="#a0a0a4" stroke-dasharray="5,2" d="M98.34,-127.1C91.06,-157.89 79.09,-208.57 71.8,-239.41"/>
<polygon fill="#a0a0a4" stroke="#a0a0a4" points="101.72,-128 100.62,-117.46 94.91,-126.39 101.72,-128"/>
<polygon fill="#a0a0a4" stroke="#a0a0a4" points="68.4,-238.6 69.5,-249.14 75.21,-240.21 68.4,-238.6"/>
<text text-anchor="middle" x="121.55" y="-179.62" font-family="Times,serif" font-size="14.00">un/follow</text>
</g>
<!-- N7&#45;&gt;N6 -->
<g id="E5" class="edge edge">
<title>N7&#45;&gt;N6</title>
<path fill="none" stroke="#a0a0a4" d="M104.55,-72.2C104.55,-63.17 104.55,-53.07 104.55,-44.02"/>
<polygon fill="#a0a0a4" stroke="#a0a0a4" points="101.05,-71.94 104.55,-81.94 108.05,-71.94 101.05,-71.94"/>
<polygon fill="#a0a0a4" stroke="#a0a0a4" points="108.05,-44.04 104.55,-34.04 101.05,-44.04 108.05,-44.04"/>
<text text-anchor="middle" x="135.05" y="-54.33" font-family="Times,serif" font-size="14.00">un/block</text>
</g>
<!-- N5&#45;&gt;N6 -->
<g id="E4" class="edge edge">
<title>N5&#45;&gt;N6</title>
<path fill="none" stroke="#a0a0a4" d="M241.29,-167.29C231.23,-140.53 206.91,-84.29 169.55,-50.53 162.67,-44.3 154.4,-38.92 146.11,-34.4"/>
<polygon fill="#a0a0a4" stroke="#a0a0a4" points="147.93,-31.4 137.43,-30.01 144.77,-37.64 147.93,-31.4"/>
<text text-anchor="middle" x="235.55" y="-96.09" font-family="Times,serif" font-size="14.00">block</text>
</g>
<!-- N5&#45;&gt;N7 -->
<g id="E2" class="edge edge">
<title>N5&#45;&gt;N7</title>
<path fill="none" stroke="#a0a0a4" stroke-dasharray="5,2" d="M209.82,-170.64C194.67,-165.1 177.26,-157.78 162.55,-149.05 150.01,-141.61 137.4,-131.51 127.16,-122.47"/>
<polygon fill="#a0a0a4" stroke="#a0a0a4" points="129.7,-120.05 119.95,-115.91 124.99,-125.23 129.7,-120.05"/>
<text text-anchor="middle" x="193.05" y="-137.85" font-family="Times,serif" font-size="14.00">unfollow</text>
</g>
</g>
</svg>
